Aula Introdução ao Software R
…
head(custo_cesta, n=5) # 10 primeiras linhas da base de dados

# # A tibble: 5 × 3
#   ...1                custo_petrolina tendencia
#   <dttm>                        <dbl>     <dbl>
# 1 2018-12-01 00:00:00            303.         1
# 2 2019-01-01 00:00:00            297.         2
# 3 2019-02-01 00:00:00            318.         3
# 4 2019-03-01 00:00:00            341.         4
# 5 2019-04-01 00:00:00            339.         5

head(custo_cesta, n= -10) # Todas as linhas menos as 10 últimas

# # A tibble: 21 × 3
#    ...1                custo_petrolina tendencia
#    <dttm>                        <dbl>     <dbl>
#  1 2018-12-01 00:00:00            303.         1
#  2 2019-01-01 00:00:00            297.         2
#  3 2019-02-01 00:00:00            318.         3
#  4 2019-03-01 00:00:00            341.         4
#  5 2019-04-01 00:00:00            339.         5
#  6 2019-05-01 00:00:00            353.         6
#  7 2019-06-01 00:00:00            355.         7
#  8 2019-07-01 00:00:00            330.         8
#  9 2019-08-01 00:00:00            320.         9
# 10 2019-09-01 00:00:00            312.        10
# # … with 11 more rows
…
tail(custo_cesta, n= -10) # Todas as linhas menos as 10 primeiras

# # A tibble: 21 × 3
#    ...1                custo_petrolina tendencia
#    <dttm>                        <dbl>     <dbl>
#  1 2019-10-01 00:00:00            306.        11
#  2 2019-11-01 00:00:00            321.        12
#  3 2019-12-01 00:00:00            324.        13
#  4 2020-01-01 00:00:00            341.        14
#  5 2020-02-01 00:00:00            342.        15
#  6 2020-08-01 00:00:00            356.        16
#  7 2020-09-01 00:00:00            378.        17
#  8 2020-10-01 00:00:00            409.        18
#  9 2020-11-01 00:00:00            423.        19
# 10 2020-12-01 00:00:00            438.        20
# # … with 11 more rows
…
Parte significante do trabalho de análise de dados envolve trabalhar
bases brutas e transformá-las em formatos mais interessantes. O R já vem
com ferramentas para isso, mas elas não são tão eficientes quanto as
disponibilizadas no pacote dplyr. A ideia do
dplyr é oferecer uma gramática dos dados, uma
maneira concisa e clara de manipulá-los.

flights vai carregar a base com os vôos:

library(nycflights13)
library(tidyverse)

flights

# # A tibble: 336,776 × 19
#     year month   day dep_time sched_de…¹ dep_d…² arr_t…³ sched…⁴ arr_d…⁵ carrier
#    <int> <int> <int>    <int>      <int>   <dbl>   <int>   <int>   <dbl> <chr>  
#  1  2013     1     1      517        515       2     830     819      11 UA     
#  2  2013     1     1      533        529       4     850     830      20 UA     
#  3  2013     1     1      542        540       2     923     850      33 AA     
#  4  2013     1     1      544        545      -1    1004    1022     -18 B6     
#  5  2013     1     1      554        600      -6     812     837     -25 DL     
#  6  2013     1     1      554        558      -4     740     728      12 UA     
#  7  2013     1     1      555        600      -5     913     854      19 B6     
#  8  2013     1     1      557        600      -3     709     723     -14 EV     
#  9  2013     1     1      557        600      -3     838     846      -8 B6     
# 10  2013     1     1      558        600      -2     753     745       8 AA     
# # … with 336,766 more rows, 9 more variables: flight <int>, tailnum <chr>,
# #   origin <chr>, dest <chr>, air_time <dbl>, distance <dbl>, hour <dbl>,
# #   minute <dbl>, time_hour <dttm>, and abbreviated variable names
# #   ¹​sched_dep_time, ²​dep_delay, ³​arr_time, ⁴​sched_arr_time, ⁵​arr_delay

filter() te permite selecionar subconjuntos dos seus
dados baseado em seus valores. O primeiro argumento é sempre um
objeto data.frame, os subsequentes são argumentos lógicos
que selecionem o que você quer:

filter(flights, month == 1, day == 1)

# # A tibble: 842 × 19
#     year month   day dep_time sched_de…¹ dep_d…² arr_t…³ sched…⁴ arr_d…⁵ carrier
#    <int> <int> <int>    <int>      <int>   <dbl>   <int>   <int>   <dbl> <chr>  
#  1  2013     1     1      517        515       2     830     819      11 UA     
#  2  2013     1     1      533        529       4     850     830      20 UA     
#  3  2013     1     1      542        540       2     923     850      33 AA     
#  4  2013     1     1      544        545      -1    1004    1022     -18 B6     
#  5  2013     1     1      554        600      -6     812     837     -25 DL     
#  6  2013     1     1      554        558      -4     740     728      12 UA     
#  7  2013     1     1      555        600      -5     913     854      19 B6     
#  8  2013     1     1      557        600      -3     709     723     -14 EV     
#  9  2013     1     1      557        600      -3     838     846      -8 B6     
# 10  2013     1     1      558        600      -2     753     745       8 AA     
# # … with 832 more rows, 9 more variables: flight <int>, tailnum <chr>,
# #   origin <chr>, dest <chr>, air_time <dbl>, distance <dbl>, hour <dbl>,
# #   minute <dbl>, time_hour <dttm>, and abbreviated variable names
# #   ¹​sched_dep_time, ²​dep_delay, ³​arr_time, ⁴​sched_arr_time, ⁵​arr_delay

# Para armazena-lo
dados.filtrados <- filter(flights, month == 1, day == 1)

# Uso do "ou" "|"
filter(flights, month == 11 | month == 12)

# # A tibble: 55,403 × 19
#     year month   day dep_time sched_de…¹ dep_d…² arr_t…³ sched…⁴ arr_d…⁵ carrier
#    <int> <int> <int>    <int>      <int>   <dbl>   <int>   <int>   <dbl> <chr>  
#  1  2013    11     1        5       2359       6     352     345       7 B6     
#  2  2013    11     1       35       2250     105     123    2356      87 B6     
#  3  2013    11     1      455        500      -5     641     651     -10 US     
#  4  2013    11     1      539        545      -6     856     827      29 UA     
#  5  2013    11     1      542        545      -3     831     855     -24 AA     
#  6  2013    11     1      549        600     -11     912     923     -11 UA     
#  7  2013    11     1      550        600     -10     705     659       6 US     
#  8  2013    11     1      554        600      -6     659     701      -2 US     
#  9  2013    11     1      554        600      -6     826     827      -1 DL     
# 10  2013    11     1      554        600      -6     749     751      -2 DL     
# # … with 55,393 more rows, 9 more variables: flight <int>, tailnum <chr>,
# #   origin <chr>, dest <chr>, air_time <dbl>, distance <dbl>, hour <dbl>,
# #   minute <dbl>, time_hour <dttm>, and abbreviated variable names
# #   ¹​sched_dep_time, ²​dep_delay, ³​arr_time, ⁴​sched_arr_time, ⁵​arr_delay

#Outra possibilidade, armazenando
nov_dec <- filter(flights, month %in% c(11, 12))

arrange() funciona de maneira similar, mas ao invés de
escolher pedaços dos dados, altera sua ordem. Alimentamos sempre um
objeto data.frame e depois dizemos - em ordem - quais
variáveis devem ser usadas para ordenação:

arrange(flights, year, month, day)

# # A tibble: 336,776 × 19
#     year month   day dep_time sched_de…¹ dep_d…² arr_t…³ sched…⁴ arr_d…⁵ carrier
#    <int> <int> <int>    <int>      <int>   <dbl>   <int>   <int>   <dbl> <chr>  
#  1  2013     1     1      517        515       2     830     819      11 UA     
#  2  2013     1     1      533        529       4     850     830      20 UA     
#  3  2013     1     1      542        540       2     923     850      33 AA     
#  4  2013     1     1      544        545      -1    1004    1022     -18 B6     
#  5  2013     1     1      554        600      -6     812     837     -25 DL     
#  6  2013     1     1      554        558      -4     740     728      12 UA     
#  7  2013     1     1      555        600      -5     913     854      19 B6     
#  8  2013     1     1      557        600      -3     709     723     -14 EV     
#  9  2013     1     1      557        600      -3     838     846      -8 B6     
# 10  2013     1     1      558        600      -2     753     745       8 AA     
# # … with 336,766 more rows, 9 more variables: flight <int>, tailnum <chr>,
# #   origin <chr>, dest <chr>, air_time <dbl>, distance <dbl>, hour <dbl>,
# #   minute <dbl>, time_hour <dttm>, and abbreviated variable names
# #   ¹​sched_dep_time, ²​dep_delay, ³​arr_time, ⁴​sched_arr_time, ⁵​arr_delay

É comum trabalhar com bases de dados que tenham centenas ou mesmo
milhares de variáveis. Para isso pode-se usar select() e
simplificar a tarefa.

# selecionando colunas por nome
select(flights, year, month, day)

# # A tibble: 336,776 × 3
#     year month   day
#    <int> <int> <int>
#  1  2013     1     1
#  2  2013     1     1
#  3  2013     1     1
#  4  2013     1     1
#  5  2013     1     1
#  6  2013     1     1
#  7  2013     1     1
#  8  2013     1     1
#  9  2013     1     1
# 10  2013     1     1
# # … with 336,766 more rows

Para renomear variáveis usa-se rename()

rename(flights, tail_num = tailnum)

# # A tibble: 336,776 × 19
#     year month   day dep_time sched_de…¹ dep_d…² arr_t…³ sched…⁴ arr_d…⁵ carrier
#    <int> <int> <int>    <int>      <int>   <dbl>   <int>   <int>   <dbl> <chr>  
#  1  2013     1     1      517        515       2     830     819      11 UA     
#  2  2013     1     1      533        529       4     850     830      20 UA     
#  3  2013     1     1      542        540       2     923     850      33 AA     
#  4  2013     1     1      544        545      -1    1004    1022     -18 B6     
#  5  2013     1     1      554        600      -6     812     837     -25 DL     
#  6  2013     1     1      554        558      -4     740     728      12 UA     
#  7  2013     1     1      555        600      -5     913     854      19 B6     
#  8  2013     1     1      557        600      -3     709     723     -14 EV     
#  9  2013     1     1      557        600      -3     838     846      -8 B6     
# 10  2013     1     1      558        600      -2     753     745       8 AA     
# # … with 336,766 more rows, 9 more variables: flight <int>, tail_num <chr>,
# #   origin <chr>, dest <chr>, air_time <dbl>, distance <dbl>, hour <dbl>,
# #   minute <dbl>, time_hour <dttm>, and abbreviated variable names
# #   ¹​sched_dep_time, ²​dep_delay, ³​arr_time, ⁴​sched_arr_time, ⁵​arr_delay
…
base <- select(flights,
 year:day,
 ends_with("delay"),
 distance,
 air_time)
mutate(base,
 gain = arr_delay - dep_delay,
 speed = distance / air_time * 60)

# # A tibble: 336,776 × 9
#     year month   day dep_delay arr_delay distance air_time  gain speed
#    <int> <int> <int>     <dbl>     <dbl>    <dbl>    <dbl> <dbl> <dbl>
#  1  2013     1     1         2        11     1400      227     9  370.
#  2  2013     1     1         4        20     1416      227    16  374.
#  3  2013     1     1         2        33     1089      160    31  408.
#  4  2013     1     1        -1       -18     1576      183   -17  517.
#  5  2013     1     1        -6       -25      762      116   -19  394.
#  6  2013     1     1        -4        12      719      150    16  288.
#  7  2013     1     1        -5        19     1065      158    24  404.
#  8  2013     1     1        -3       -14      229       53   -11  259.
#  9  2013     1     1        -3        -8      944      140    -5  405.
# 10  2013     1     1        -2         8      733      138    10  319.
# # … with 336,766 more rows

Se você quer somente as variáveis geradas, então use
transmute():

transmute(flights,
 gain = arr_delay - dep_delay,
 hours = air_time / 60)

# # A tibble: 336,776 × 2
#     gain hours
#    <dbl> <dbl>
#  1     9 3.78 
#  2    16 3.78 
#  3    31 2.67 
#  4   -17 3.05 
#  5   -19 1.93 
#  6    16 2.5  
#  7    24 2.63 
#  8   -11 0.883
#  9    -5 2.33 
# 10    10 2.3  
# # … with 336,766 more rows
…
